Credentials cache: API:B14BB6A4-20FD-4CF1-992A-3D46595581C1
        Principal: cananwat@42BANGKOK.COM

  Issued                Expires               Principal
Oct 18 17:16:12 2021  Oct 19 03:16:07 2021  krbtgt/42BANGKOK.COM@42BANGKOK.COM
